[gd_resource type="AtlasTexture" load_steps=2 format=1]

[ext_resource path="res://images/sprites.png" type="Texture" id=1]

[resource]

atlas = ExtResource( 1 )
region = Rect2( 126, 0, 21, 21 )
margin = Rect2( 0, 0, 0, 0 )
